{
    "prepare_queue": {
        "installed": [],
        "uninstalled": []
    },
    "config_munge": {
        "files": {
            "res/xml/config.xml": {
                "parents": {
                    "/*": [
                        {
                            "xml": "<feature name=\"Keyboard\"><param name=\"android-package\" value=\"com.ionic.keyboard.IonicKeyboard\" /><param name=\"onload\" value=\"true\" /></feature>",
                            "count": 1
                        },
                        {
                            "xml": "<feature name=\"Toast\"><param name=\"android-package\" value=\"nl.xservices.plugins.Toast\" /></feature>",
                            "count": 1
                        },
                        {
                            "xml": "<feature name=\"Device\"><param name=\"android-package\" value=\"org.apache.cordova.device.Device\" /></feature>",
                            "count": 1
                        }
                    ]
                }
            }
        }
    },
    "installed_plugins": {
        "com.ionic.keyboard": {
            "PACKAGE_NAME": "com.ionicframework.ionicpgs713324"
        },
        "nl.x-services.plugins.toast": {
            "PACKAGE_NAME": "com.ionicframework.ionicpgs713324"
        },
        "org.apache.cordova.console": {
            "PACKAGE_NAME": "com.ionicframework.ionicpgs713324"
        },
        "org.apache.cordova.device": {
            "PACKAGE_NAME": "com.ionicframework.ionicpgs713324"
        }
    },
    "dependent_plugins": {}
}